Labeling • volker
…
      Source: vignettes/labels.Rmd
      labels.Rmd

The codebook function

Labels used in plots and tables are stored in the comment attribute
of the variable. You can inspect all labels using the
codebook()-function:

codebook(ds)
#> # A tibble: 94 × 6
#>    item_name     item_group item_class item_label         value_name value_label
#>    <chr>         <chr>      <chr>      <chr>              <chr>      <chr>      
#>  1 case          case       numeric    case               NA         NA         
#>  2 sd_age        sd         numeric    Age                NA         NA         
#>  3 cg_activities cg         character  Activities with C… NA         NA         
#>  4 adopter       adopter    factor     Innovator type     I try new… I try new …
#>  5 adopter       adopter    factor     Innovator type     I try new… I try new …
#>  6 adopter       adopter    factor     Innovator type     I wait un… I wait unt…
#>  7 adopter       adopter    factor     Innovator type     I only us… I only use…
#>  8 adopter       adopter    factor     Innovator type     [no answe… [no answer]
#>  9 sd_gender     sd         factor     Gender             female     female     
#> 10 sd_gender     sd         factor     Gender             male       male       
#> # ℹ 84 more rows
…
